<svg xmlns="http://www.w3.org/2000/svg" width="32" height="32" viewBox="0 0 24 24">
<path fill="none" d="M0 0h24v24H0V0z"/>
<path fill="#FFFFFF" d="M12 8c-2.21 0-4 1.79-4 4s1.79 4 4 4 4-1.79 4-4-1.79-4-4-4zm8.94 3c-.46-4.17-3.77-7.48-7.94-7.94V2c0-.55-.45-1-1-1s-1 .45-1 1v1.06C6.83 3.52 3.52 6.83 3.06 11H2c-.55 0-1 .45-1 1s.45 1 1 1h1.06c.46 4.17 3.77 7.48 7.94 7.94V22c0 .55.45 1 1 1s1-.45 1-1v-1.06c4.17-.46 7.48-3.77 7.94-7.94H22c.55 0 1-.45 1-1s-.45-1-1-1h-1.06zM12 19c-3.87 0-7-3.13-7-7s3.13-7 7-7 7 3.13 7 7-3.13 7-7 7z"/>
</svg>